{
  "tests": [
    {
      "targets": ["condvar_unit_tests"],
      "profiles": ["Debug"]
    },
    {
      "targets": ["condvar_random_tests"],
      "profiles": ["Matrix"]
    },
    {
      "targets": ["condvar_stress_tests"],
      "profiles": [
        "Fiber",
        "Debug",
        "FaultyThreadASan",
        "FaultyThreadTSan"
      ]
    }
  ]
}
